team specificity_interval_12_18_NIV specificity_interval_12_18_PEG specificity_interval_12_18_DEATH specificity_interval_12_18_NONE specificity_interval_12_18_CENSORED recall_interval_12_18_NIV recall_interval_12_18_PEG recall_interval_12_18_DEATH recall_interval_12_18_NONE recall_interval_12_18_CENSORED specificity_interval_18_24_NIV specificity_interval_18_24_PEG specificity_interval_18_24_DEATH specificity_interval_18_24_NONE specificity_interval_18_24_CENSORED recall_interval_18_24_NIV recall_interval_18_24_PEG recall_interval_18_24_DEATH recall_interval_18_24_NONE recall_interval_18_24_CENSORED specificity_interval_24_30_NIV specificity_interval_24_30_PEG specificity_interval_24_30_DEATH specificity_interval_24_30_NONE specificity_interval_24_30_CENSORED recall_interval_24_30_NIV recall_interval_24_30_PEG recall_interval_24_30_DEATH recall_interval_24_30_NONE recall_interval_24_30_CENSORED specificity_interval_30_36_NIV specificity_interval_30_36_PEG specificity_interval_30_36_DEATH specificity_interval_30_36_NONE specificity_interval_30_36_CENSORED recall_interval_30_36_NIV recall_interval_30_36_PEG recall_interval_30_36_DEATH recall_interval_30_36_NONE recall_interval_30_36_CENSORED specificity_label_NIV specificity_label_PEG specificity_label_DEATH specificity_label_NONE specificity_label_CENSORED recall_label_NIV recall_label_PEG recall_label_DEATH recall_label_NONE recall_label_CENSORED
fcool_T2b_M6_hierarchical0 1 0.796666666666667 0.982517482517482 0.682926829268293 0.796407185628742 NA 0.441176470588235 0.0833333333333333 0.615079365079365 NA 1 0.845814977973568 0.985781990521327 0.722222222222222 0.617886178861789 NA 0.157894736842105 0 0.5 NA 1 0.952095808383233 0.993788819875776 0.788461538461538 0.5 NA 0.217391304347826 0 0.507246376811594 NA 1 0.890625 1 0.681818181818182 0.507352941176471 NA 0 0 0.421052631578947 NA 1 0.0895522388059701 0.928571428571429 0.987654320987654 1 NA 0.928571428571429 0.0746268656716418 NA NA
fcool_T2b_M6_hierarchical1 1 0.793333333333333 0.986013986013986 0.695121951219512 0.793413173652695 NA 0.441176470588235 0.0833333333333333 0.615079365079365 NA 1 0.845814977973568 0.985781990521327 0.722222222222222 0.617886178861789 NA 0.157894736842105 0 0.5 NA 1 0.946107784431138 0.993788819875776 0.788461538461538 0.5 NA 0.217391304347826 0 0.5 NA 1 0.890625 1 0.681818181818182 0.5 NA 0 0 0.412280701754386 NA 1 0.0746268656716418 0.928571428571429 0.987654320987654 1 NA 0.928571428571429 0.0597014925373134 NA NA
fcool_T2b_M6_hierarchical2 1 0.823333333333333 0.979020979020979 0.634146341463415 0.79940119760479 NA 0.352941176470588 0.0833333333333333 0.642857142857143 NA 1 0.854625550660793 0.962085308056872 0.685185185185185 0.646341463414634 NA 0.157894736842105 0.0285714285714286 0.505208333333333 NA 1 0.946107784431138 0.993788819875776 0.730769230769231 0.505263157894737 NA 0.130434782608696 0 0.5 NA 1 0.890625 1 0.681818181818182 0.5 NA 0 0 0.412280701754386 NA 1 0.0895522388059701 0.928571428571429 0.987654320987654 1 NA 0.928571428571429 0.0746268656716418 NA NA
